{
    "defaultSeverity": "error",
    "extends": [
        "tslint:recommended"
    ],
    "jsRules": {},
    "rules": {
        "callable-types": false,
        "interface-name": [ "never-prefix" ],
        "max-classes-per-file": false,
        "max-line-length": [],
        "member-access": ["no-public"],
        "no-bitwise": false,
        "no-consecutive-blank-lines": [true, 2],
        "no-console": false,
        "no-empty": false,
        "no-empty-interface": false,
        "no-namespace": false,
        "no-shadowed-variable": false,
        "no-switch-case-fall-through": true,
        "object-literal-sort-keys": false,
        "object-literal-key-quotes": [true, "consistent"],
        "one-line": [ "check-open-brace" ],
        "one-variable-per-declaration": [false],
        "ordered-imports": [true, {
            "import-sources-order": "case-insensitive",
            "named-imports-order": "case-insensitive"
        }],
        "variable-name": [
            "allow-snake-case",
            "ban-keywords",
            "check-format"
        ]
    },
    "rulesDirectory": []
}